8D5U5524 13
8D5U5525 13
8D5U5526 24
8D5U5527 24
8D5U5528 24
8D5U5529 3
8D5U5530 13
8D5U5531 13
8D5U5532 13
8D5U5533 3
8D5U5534 1
8D5U5535 3
8D5U5536 19
8D5U5537 19
8D5U5538 13
8D5U5539 13
8D5U5540 10
8D5U5541 11
8D5U5543 10
8D5U5544 3
8D5U5545 24
8D5U5547 24
8D5U5548 24
8D5U5549 1
8D5U5550 1
8D5U5552 1
8D5U5553 1
8D5U5554 24
8D5U5555 1
8D5U5556 24
8D5U5557 24
8D5U5558 24
8D5U5560 19
8D5U5561 19
8D5U5562 19
8D5U5563 19
8D5U5564 10
8D5U5565 19
8D5U5566 19
8D5U5567 8
8D5U5568 15
8D5U5569 3
8D5U5570 19
8D5U5571 2
8D5U5572 3
8D5U5573 3
8D5U5574 19
8D5U5575 11
8D5U5576 19
8D5U5577 10
8D5U5578 15
8D5U5579 19
8D5U5580 15
8D5U5581 3
8D5U5582 19
8D5U5583 11
8D5U5584 11
8D5U5585 10
8D5U5586 10
8D5U5587 3
8D5U5588 13
8D5U5589 10
8D5U5592 13
8D5U5593 1
8D5U5594 13
8D5U5596 8
8D5U5597 3
8D5U5598 15
8D5U5599 8
8D5U5600 8
8D5U5601 1
8D5U5602 1
8D5U5603 1
8D5U5604 1
8D5U5606 13
8D5U5607 10
8D5U5608 10
8D5U5611 2
8D5U5612 8
8D5U5613 2
8D5U5614 2
8D5U5615 2
8D5U5617 8
8D5U5618 8
8D5U5619 2
8D5U5620 2
IMG_0281 22
IMG_0282 0
IMG_0283 22
IMG_0284 22
IMG_0285 22
IMG_0286 7
IMG_0287 7
IMG_0289 7
IMG_0290 7
IMG_0291 7
IMG_0292 12
IMG_0293 12
IMG_0295 7
IMG_0296 22
IMG_0297 7
IMG_0298 4
IMG_0300 22
IMG_0301 22
IMG_0302 7
IMG_0303 7
IMG_0305 7
IMG_0306 7
IMG_0307 7
IMG_0310 22
IMG_0313 7
IMG_0314 7
IMG_0315 7
IMG_0316 7
IMG_0317 7
IMG_0318 22
IMG_0319 7
IMG_0320 7
IMG_0321 7
IMG_0323 7
IMG_0324 7
IMG_0325 17
IMG_0327 18
IMG_0328 22
IMG_0329 22
IMG_0332 7
IMG_0333 7
IMG_0334 7
IMG_0335 22
IMG_0336 22
IMG_0337 22
IMG_0339 22
IMG_0340 22
IMG_0341 22
IMG_0342 22
IMG_0343 12
IMG_0344 7
IMG_0345 22
IMG_0350 22
IMG_0351 22
IMG_0352 7
IMG_0353 22
IMG_0354 7
IMG_0355 22
IMG_0361 4
IMG_0362 4
IMG_0363 12
IMG_0364 7
IMG_0365 12
IMG_0366 12
IMG_0367 12
IMG_0368 12
IMG_0369 12
IMG_0370 22
IMG_0371 22
IMG_0372 22
IMG_0374 22
IMG_0375 22
IMG_0376 22
IMG_0377 22
IMG_0378 22
IMG_0379 22
IMG_0380 22
IMG_0381 22
IMG_0382 22
IMG_0383 18
IMG_0384 22
IMG_0385 12
IMG_0386 12
IMG_0387 22
IMG_0388 0
IMG_0389 0
IMG_0390 7
IMG_0392 7
IMG_0393 12
IMG_0394 7
IMG_0395 12
IMG_0396 17
IMG_0397 7
IMG_0398 7
IMG_0399 12
IMG_0400 12
IMG_0401 22
IMG_0402 7
IMG_0403 22
IMG_0404 7
IMG_0405 7
IMG_0406 7
IMG_0407 7
IMG_0408 22
IMG_0409 22
IMG_0410 20
IMG_0411 22
IMG_0412 7
IMG_0413 12
IMG_0414 7
IMG_0416 12
IMG_0417 22
IMG_0418 4
IMG_0419 12
IMG_0420 22
IMG_0421 7
IMG_0422 7
IMG_0423 7
IMG_0424 7
IMG_0425 22
IMG_0426 7
IMG_0427 7
IMG_0428 22
IMG_0429 20
IMG_0430 12
IMG_0431 22
IMG_0432 7
IMG_0433 20
IMG_0434 12
IMG_0435 4
IMG_0436 4
IMG_0437 7
IMG_0438 12
IMG_0439 0
IMG_0440 12
IMG_0441 22
IMG_0442 22
IMG_0443 16
IMG_0444 12
IMG_0445 16
IMG_0446 22
IMG_0447 12
IMG_0448 22
IMG_0449 16
IMG_0450 0
IMG_0451 16
IMG_0452 16
IMG_0453 16
IMG_0455 0
IMG_0456 16
IMG_0457 22
IMG_0458 22
IMG_0459 12
IMG_0460 20
IMG_0461 6
IMG_0462 14
IMG_0463 14
IMG_0464 20
IMG_0465 4
IMG_0466 18
IMG_0467 7
IMG_0468 12
IMG_0469 22
IMG_0470 12
IMG_0471 4
IMG_0472 12
IMG_0473 12
IMG_0474 12
IMG_0477 7
IMG_0479 7
IMG_0480 12
IMG_0481 12
IMG_0482 16
IMG_0483 16
IMG_0484 16
IMG_0485 17
IMG_0486 17
IMG_0487 22
IMG_0488 4
IMG_0489 17
IMG_0490 0
IMG_0491 7
IMG_0492 22
IMG_0493 0
IMG_0494 4
IMG_0495 22
IMG_0496 22
IMG_0497 0
IMG_0498 0
IMG_0499 0
IMG_0500 22
IMG_0501 22
IMG_0502 22
IMG_0503 12
IMG_0504 12
IMG_0505 7
IMG_0506 0
IMG_0507 22
IMG_0508 22
IMG_0509 0
IMG_0510 0
IMG_0511 0
IMG_0512 0
IMG_0513 0
IMG_0514 16
IMG_0515 0
IMG_0516 0
IMG_0517 0
IMG_0518 0
IMG_0519 0
IMG_0520 12
IMG_0521 0
IMG_0522 22
IMG_0523 0
IMG_0524 16
IMG_0525 16
IMG_0526 22
IMG_0527 0
IMG_0528 16
IMG_0529 16
IMG_0530 0
IMG_0531 7
IMG_0533 4
IMG_0534 4
IMG_0538 6
IMG_0539 6
IMG_0540 14
IMG_0542 23
IMG_0543 23
IMG_0544 23
IMG_0545 23
IMG_0546 17
IMG_0547 17
IMG_0549 23
IMG_0550 23
IMG_0551 6
IMG_0552 14
IMG_0553 5
IMG_0554 5
IMG_0555 23
IMG_0556 23
IMG_0558 21
IMG_0559 20
IMG_0560 23
IMG_0561 23
IMG_0562 21
IMG_0563 17
IMG_0564 0
IMG_0565 21
IMG_0566 21
IMG_0567 23
IMG_0568 6
IMG_0570 20
IMG_0571 6
IMG_0572 20
IMG_0574 6
IMG_0575 20
IMG_0576 21
IMG_0577 23
IMG_0578 23
IMG_0580 20
IMG_0581 5
IMG_0583 17
IMG_0584 17
IMG_0585 17
IMG_0586 23
IMG_0587 23
IMG_0588 23
IMG_0589 23
IMG_0592 23
IMG_0593 5
IMG_0594 23
IMG_0595 23
IMG_0596 23
IMG_0597 4
IMG_0598 17
IMG_0599 23
IMG_0600 5
IMG_0601 23
IMG_0602 5
IMG_0603 21
IMG_0604 21
IMG_0605 17
IMG_0606 17
IMG_0607 5
IMG_0608 23
IMG_0609 18
IMG_0610 21
IMG_0611 20
IMG_0612 14
IMG_0613 21
IMG_0614 21
IMG_0615 6
IMG_0616 21
IMG_0617 5
IMG_0618 23
IMG_0619 23
IMG_0620 23
IMG_0621 23
IMG_0622 23
IMG_0623 23
IMG_0624 14
IMG_0625 5
IMG_0626 14
IMG_0627 4
IMG_0628 4
IMG_0629 21
IMG_0630 5
IMG_0631 5
IMG_0632 23
IMG_0633 14
IMG_0634 14
IMG_0635 14
IMG_0636 17
IMG_0637 20
IMG_0638 4
IMG_0661 18
IMG_0666 20
IMG_0670 20
IMG_0671 18
IMG_0672 22
IMG_0673 22
IMG_0674 22
IMG_0675 22
IMG_0676 22
IMG_0677 22
IMG_0678 22
IMG_0679 22
IMG_0680 22
IMG_0681 18
IMG_0682 12
IMG_0683 22
IMG_0684 22
IMG_0685 4
IMG_0686 18
IMG_0687 4
IMG_0688 4
IMG_0743 0
IMG_0744 0
IMG_0745 0
IMG_0746 0
IMG_0747 0
IMG_0749 0
IMG_0750 0
IMG_0753 0
IMG_0754 0
IMG_0755 22
IMG_0756 0
IMG_0757 0
IMG_0758 0
IMG_0759 22
IMG_0760 0
IMG_0761 0
IMG_0762 22
IMG_0763 0
IMG_0765 0
IMG_0766 0
IMG_0767 0
IMG_0768 4
IMG_0770 0
IMG_0771 4
IMG_0772 0
IMG_0773 0
IMG_0774 0
IMG_0775 0
IMG_0776 22
IMG_0777 12
IMG_0778 0
IMG_0779 7
IMG_0780 0
IMG_0782 0
IMG_0783 0
IMG_0784 0
IMG_0785 0
IMG_0786 0
IMG_0787 0
IMG_0788 0
IMG_0789 22
IMG_0790 7
IMG_0791 0
IMG_0792 0
IMG_0793 0
IMG_0794 0
IMG_0795 0
IMG_0796 0
IMG_0797 22
IMG_0798 6
IMG_0799 0
IMG_0800 0
IMG_0801 0
IMG_0802 4
IMG_0803 0
IMG_0804 0
IMG_0805 16
IMG_0806 16
IMG_0807 16
IMG_0808 0
IMG_0809 0
IMG_0810 0
IMG_0811 16
IMG_0812 0
IMG_0813 16
IMG_0814 16
IMG_0815 16
IMG_0816 16
IMG_0817 16
IMG_0818 16
IMG_0819 16
IMG_0820 16
IMG_0821 16
IMG_0822 16
IMG_0823 16
IMG_0824 16
IMG_0825 16
IMG_0826 16
IMG_0828 16
IMG_0829 16
IMG_0830 0
IMG_0831 16
IMG_0832 16
IMG_0833 16
IMG_0834 16
IMG_0835 16
IMG_0836 14
IMG_0837 14
IMG_0838 5
IMG_0839 5
IMG_0840 5
IMG_0841 16
IMG_0842 0
IMG_0843 16
IMG_0844 0
IMG_0845 16
IMG_0846 16
IMG_0847 9
IMG_0849 14
IMG_0851 9
IMG_0853 9
IMG_0854 23
IMG_0855 20
IMG_0857 4
IMG_0858 6
IMG_0859 7
IMG_0860 22
IMG_0861 23
IMG_0862 12
IMG_0863 6
IMG_0864 23
IMG_0865 4
IMG_0866 6
IMG_0867 22
IMG_0869 17
IMG_0870 18
IMG_0872 18
IMG_0873 17
IMG_0874 17
IMG_0875 17
IMG_0876 20
IMG_0877 20
IMG_0878 18
IMG_0879 17
IMG_0880 18
IMG_0881 17
IMG_0882 18
IMG_0883 18
IMG_0884 18
IMG_0885 23
IMG_0886 23
IMG_0887 21
IMG_0888 21
IMG_0890 5
IMG_0891 17
IMG_0892 5
IMG_0893 23
IMG_0894 23
IMG_0895 23
IMG_0896 17
IMG_0899 23
IMG_0900 23
IMG_0901 5
IMG_0902 5
IMG_0903 14
